{
  "allList": {
    "response": {
      "content": [
        {
          "logonId": "suchen.liu",
          "name": "劉素珍",
          "accountId": "3481",
          "status": 1,
          "role": 23,
          "emergency": false,
          "allowedSite": []
        },
        {
          "logonId": "michelle.wang",
          "name": "王茗萱",
          "accountId": "3287",
          "status": 1,
          "role": 1,
          "emergency": false,
          "allowedSite": []
        },
        {
          "logonId": "linda.hsu",
          "name": "許惠芝",
          "accountId": "2382",
          "status": 1,
          "role": 1,
          "emergency": false,
          "allowedSite": []
        },
        {
          "logonId": "charlene.lee",
          "name": "李采婷",
          "accountId": "2862",
          "status": 1,
          "role": 1,
          "emergency": false,
          "allowedSite": []
        },
        {
          "logonId": "jana.chen",
          "name": "陳秀真",
          "accountId": "3458",
          "status": 1,
          "role": 13,
          "emergency": false,
          "allowedSite": []
        },
        {
          "logonId": "lea.liu",
          "name": "劉孟婷",
          "accountId": "3453",
          "status": 1,
          "role": 13,
          "emergency": false,
          "allowedSite": []
        },
        {
          "logonId": "fan.chih",
          "name": "支向凡",
          "accountId": "3443",
          "status": 1,
          "role": 11,
          "emergency": false,
          "allowedSite": []
        },
        {
          "logonId": "nina.lee",
          "name": "李岱容",
          "accountId": "3413",
          "status": 1,
          "role": 23,
          "emergency": false,
          "allowedSite": []
        },
        {
          "logonId": "samuel.wang",
          "name": "王之璘",
          "accountId": "2845",
          "status": 1,
          "role": 22,
          "emergency": false,
          "allowedSite": []
        },
        {
          "logonId": "max.chou",
          "name": "周家樂",
          "accountId": "3307",
          "status": 1,
          "role": 1,
          "emergency": false,
          "allowedSite": []
        },
        {
          "logonId": "ku.wang",
          "name": "王少谷",
          "accountId": "3050",
          "status": 1,
          "role": 1,
          "emergency": false,
          "allowedSite": []
        },
        {
          "logonId": "jay.jiao",
          "name": "焦品貴",
          "accountId": "2941",
          "status": 1,
          "role": 1,
          "emergency": false,
          "allowedSite": []
        },
        {
          "logonId": "eris.lee",
          "name": "李宛庭",
          "accountId": "3423",
          "status": 1,
          "role": 11,
          "emergency": false,
          "allowedSite": []
        },
        {
          "logonId": "yiting.jheng",
          "name": "鄭伊婷",
          "accountId": "T1015",
          "status": 1,
          "role": 1,
          "emergency": false,
          "allowedSite": []
        },
        {
          "logonId": "victor.hsu",
          "name": "徐文達",
          "accountId": "3059",
          "status": 1,
          "role": 1,
          "emergency": false,
          "allowedSite": []
        },
        {
          "logonId": "carol.yang",
          "name": "楊蓉蓉",
          "accountId": "3324",
          "status": 1,
          "role": 1,
          "emergency": false,
          "allowedSite": []
        },
        {
          "logonId": "cora.lin",
          "name": "林宸亘",
          "accountId": "3257",
          "status": 1,
          "role": 1,
          "emergency": false,
          "allowedSite": []
        },
        {
          "logonId": "kaiwen.lin",
          "name": "林凱雯",
          "accountId": "1833",
          "status": 1,
          "role": 23,
          "emergency": false,
          "allowedSite": []
        },
        {
          "logonId": "alan.chang",
          "name": "張峻瑞",
          "accountId": "3153",
          "status": 1,
          "role": 13,
          "emergency": false,
          "allowedSite": []
        },
        {
          "logonId": "carrie.huang",
          "name": "黃靖宇",
          "accountId": "1140",
          "status": 1,
          "role": 1,
          "emergency": false,
          "allowedSite": []
        }
      ],
      "totalPages": 10,
      "totalElements": 185,
      "last": false,
      "size": 20,
      "page": 1,
      "numberOfElements": 20
    }
  },
  "searchList": {
    "response": {
      "content": [
        {
          "logonId": "e2e.text",
          "name": "Cypress",
          "accountId": "9999",
          "status": 1,
          "role": 1,
          "emergency": false,
          "allowedSite": []
        }
      ],
      "totalPages": 1,
      "totalElements": 1,
      "last": false,
      "size": 20,
      "page": 1,
      "numberOfElements": 1
    }
  }
}
