{
  "allList": {
    "response": {
      "content": [
        {
          "id": 25338,
          "accountId": "1244",
          "logonId": "doreen.chen",
          "name": "陳頤萱",
          "logType": 51,
          "manipulation": 2,
          "keyId": "4469",
          "description": "修改素材 : Dashboard測試(4469)",
          "model": "{\"reservationId\":13410,\"title\":\"Dashboard測試\",\"status\":1,\"contents\":[{\"typeGroupNo\":1,\"sort\":1,\"innerText\":\"Dashboard測試\",\"link\":\"https://udn.com/news/index\",\"fileName\":\"\"},{\"typeGroupNo\":1,\"sort\":2,\"innerText\":\"這家公司芭樂檸檬繽紛水果茶芭樂梅\",\"link\":\"\",\"fileName\":\"\"},{\"typeGroupNo\":1,\"sort\":3,\"innerText\":\"旺來翡翠旺來\",\"link\":\"\",\"fileName\":\"\"},{\"typeGroupNo\":1,\"sort\":4,\"innerText\":\"｜固定冰量｜台農17，春蜜\",\"link\":\"\",\"fileName\":\"\"}]}",
          "createDate": "2022/06/29 16:53:33"
        },
        {
          "id": 25337,
          "accountId": "1244",
          "logonId": "doreen.chen",
          "name": "陳頤萱",
          "logType": 61,
          "manipulation": 2,
          "keyId": "13434",
          "description": "修改檔期預約 : 13434",
          "model": "{\"usage\":0,\"deduction\":0,\"giveaway\":false,\"note\":\"\",\"startDate\":\"2022/07/01\",\"endDate\":\"2022/07/03\"}",
          "createDate": "2022/06/29 16:52:25"
        },
        {
          "id": 25336,
          "accountId": "1244",
          "logonId": "doreen.chen",
          "name": "陳頤萱",
          "logType": 51,
          "manipulation": 1,
          "keyId": "4484",
          "description": "複製素材 : 4484",
          "model": "{\"reservationSourceId\":13434,\"reservationTargetId\":13453,\"materials\":[4481,4481,4481,4481,4481,4481,4481]}",
          "createDate": "2022/06/29 16:52:12"
        },
        {
          "id": 25335,
          "accountId": "1244",
          "logonId": "doreen.chen",
          "name": "陳頤萱",
          "logType": 51,
          "manipulation": 1,
          "keyId": "4483",
          "description": "複製素材 : 4483",
          "model": "{\"reservationSourceId\":13434,\"reservationTargetId\":13452,\"materials\":[4481,4481,4481,4481,4481,4481,4481]}",
          "createDate": "2022/06/29 16:52:08"
        },
        {
          "id": 25334,
          "accountId": "1244",
          "logonId": "doreen.chen",
          "name": "陳頤萱",
          "logType": 51,
          "manipulation": 1,
          "keyId": "4482",
          "description": "複製素材 : 4482",
          "model": "{\"reservationSourceId\":13434,\"reservationTargetId\":13438,\"materials\":[4481,4481,4481,4481,4481,4481,4481]}",
          "createDate": "2022/06/29 16:52:04"
        },
        {
          "id": 25333,
          "accountId": "1244",
          "logonId": "doreen.chen",
          "name": "陳頤萱",
          "logType": 53,
          "manipulation": 1,
          "keyId": "13434",
          "description": "新增素材曝光日期 : (預約編號:13434)",
          "model": "{\"reservationId\":13434,\"dateMaterialId\":[{\"startDate\":{\"year\":2022,\"month\":7,\"day\":1},\"materialId\":4481},{\"startDate\":{\"year\":2022,\"month\":7,\"day\":2},\"materialId\":4481},{\"startDate\":{\"year\":2022,\"month\":7,\"day\":3},\"materialId\":4481}]}",
          "createDate": "2022/06/29 16:51:49"
        },
        {
          "id": 25332,
          "accountId": "1244",
          "logonId": "doreen.chen",
          "name": "陳頤萱",
          "logType": 51,
          "manipulation": 1,
          "keyId": "4481",
          "description": "新增素材 : 貝斯手艾力克約翰薩奇(4481)",
          "model": "{\"reservationId\":13434,\"title\":\"貝斯手艾力克約翰薩奇\",\"status\":1,\"contents\":[{\"typeGroupNo\":1,\"sort\":1,\"innerText\":\"貝斯手艾力克約翰薩奇\",\"link\":\"https://tw.news.yahoo.com/%E9%82%A6%E5%96%AC%E9%A3%9B-%E5%89%B5%E5%9C%98%E5%85%83%E8%80%81-%E9%80%9D%E4%B8%96-%E4%BA%AB%E5%A3%BD70%E6%AD%B2-%E4%B8%BB%E5%94%B1%E6%82%B2%E6%85%9F%E8%AD%89%E5%AF%A6%E5%99%A9%E8%80%97-073806683.html\",\"fileName\":\"\"},{\"typeGroupNo\":1,\"sort\":2,\"innerText\":\"邦喬飛「創團元老」逝世！享壽70歲 主唱\",\"link\":\"\",\"fileName\":\"\"},{\"typeGroupNo\":1,\"sort\":3,\"innerText\":\"享壽70\",\"link\":\"\",\"fileName\":\"\"},{\"typeGroupNo\":1,\"sort\":4,\"innerText\":\"Alec JohnSuch\",\"link\":\"\",\"fileName\":\"\"}]}",
          "createDate": "2022/06/29 16:51:44"
        },
        {
          "id": 25331,
          "accountId": "1244",
          "logonId": "doreen.chen",
          "name": "陳頤萱",
          "logType": 61,
          "manipulation": 2,
          "keyId": "13437",
          "description": "修改檔期預約 : 13437",
          "model": "{\"usage\":0,\"deduction\":0,\"giveaway\":false,\"note\":\"\",\"startDate\":\"2022/07/01\",\"endDate\":\"2022/07/03\"}",
          "createDate": "2022/06/29 16:50:22"
        },
        {
          "id": 25330,
          "accountId": "1244",
          "logonId": "doreen.chen",
          "name": "陳頤萱",
          "logType": 51,
          "manipulation": 1,
          "keyId": "4480",
          "description": "複製素材 : 4480",
          "model": "{\"reservationSourceId\":13437,\"reservationTargetId\":13451,\"materials\":[4477,4477,4477,4477,4477,4477,4477]}",
          "createDate": "2022/06/29 16:50:04"
        },
        {
          "id": 25329,
          "accountId": "1244",
          "logonId": "doreen.chen",
          "name": "陳頤萱",
          "logType": 51,
          "manipulation": 1,
          "keyId": "4479",
          "description": "複製素材 : 4479",
          "model": "{\"reservationSourceId\":13437,\"reservationTargetId\":13450,\"materials\":[4477,4477,4477,4477,4477,4477,4477]}",
          "createDate": "2022/06/29 16:50:00"
        },
        {
          "id": 25328,
          "accountId": "1244",
          "logonId": "doreen.chen",
          "name": "陳頤萱",
          "logType": 51,
          "manipulation": 1,
          "keyId": "4478",
          "description": "複製素材 : 4478",
          "model": "{\"reservationSourceId\":13437,\"reservationTargetId\":13435,\"materials\":[4477,4477,4477,4477,4477,4477,4477]}",
          "createDate": "2022/06/29 16:49:56"
        },
        {
          "id": 25327,
          "accountId": "1244",
          "logonId": "doreen.chen",
          "name": "陳頤萱",
          "logType": 53,
          "manipulation": 1,
          "keyId": "13437",
          "description": "新增素材曝光日期 : (預約編號:13437)",
          "model": "{\"reservationId\":13437,\"dateMaterialId\":[{\"startDate\":{\"year\":2022,\"month\":7,\"day\":1},\"materialId\":4477},{\"startDate\":{\"year\":2022,\"month\":7,\"day\":2},\"materialId\":4477},{\"startDate\":{\"year\":2022,\"month\":7,\"day\":3},\"materialId\":4477}]}",
          "createDate": "2022/06/29 16:49:35"
        },
        {
          "id": 25326,
          "accountId": "1244",
          "logonId": "doreen.chen",
          "name": "陳頤萱",
          "logType": 51,
          "manipulation": 1,
          "keyId": "4477",
          "description": "新增素材 : 素材001(4477)",
          "model": "{\"reservationId\":13437,\"title\":\"素材001\",\"status\":1,\"contents\":[{\"typeGroupNo\":1,\"sort\":1,\"innerText\":\"滯留鋒重返台灣，今起10天天氣不佳\",\"link\":\"https://www.chinatimes.com/realtimenews/20220606000694-260405?chdtv\",\"fileName\":\"\"},{\"typeGroupNo\":1,\"sort\":2,\"innerText\":\"梅雨@，★← 今起雷雨亂炸 未來10天天\",\"link\":\"\",\"fileName\":\"\"},{\"typeGroupNo\":1,\"sort\":3,\"innerText\":\"恐有劇烈降雨\",\"link\":\"\",\"fileName\":\"\"},{\"typeGroupNo\":1,\"sort\":4,\"innerText\":\"這波雨勢堪稱今年梅雨季以來\",\"link\":\"\",\"fileName\":\"\"}]}",
          "createDate": "2022/06/29 16:49:32"
        },
        {
          "id": 25324,
          "accountId": "1244",
          "logonId": "doreen.chen",
          "name": "陳頤萱",
          "logType": 61,
          "manipulation": 2,
          "keyId": "13426",
          "description": "修改檔期預約 : 13426",
          "model": "{\"usage\":0,\"deduction\":0,\"giveaway\":false,\"note\":\"\",\"startDate\":\"2022/07/01\",\"endDate\":\"2022/07/03\"}",
          "createDate": "2022/06/29 16:49:04"
        },
        {
          "id": 25325,
          "accountId": "1244",
          "logonId": "doreen.chen",
          "name": "陳頤萱",
          "logType": 61,
          "manipulation": 2,
          "keyId": "13427",
          "description": "修改檔期預約 : 13427",
          "model": "{\"usage\":0,\"deduction\":0,\"giveaway\":false,\"note\":\"\",\"startDate\":\"2022/07/01\",\"endDate\":\"2022/07/03\"}",
          "createDate": "2022/06/29 16:49:04"
        },
        {
          "id": 25323,
          "accountId": "1244",
          "logonId": "doreen.chen",
          "name": "陳頤萱",
          "logType": 51,
          "manipulation": 1,
          "keyId": "4476",
          "description": "複製素材 : 4476",
          "model": "{\"reservationSourceId\":13426,\"reservationTargetId\":13459,\"materials\":[4470,4470,4470,4470,4470,4470,4470]}",
          "createDate": "2022/06/29 16:47:49"
        },
        {
          "id": 25322,
          "accountId": "1244",
          "logonId": "doreen.chen",
          "name": "陳頤萱",
          "logType": 51,
          "manipulation": 1,
          "keyId": "4475",
          "description": "複製素材 : 4475",
          "model": "{\"reservationSourceId\":13426,\"reservationTargetId\":13422,\"materials\":[4470,4470,4470,4470,4470,4470,4470]}",
          "createDate": "2022/06/29 16:47:45"
        },
        {
          "id": 25321,
          "accountId": "1244",
          "logonId": "doreen.chen",
          "name": "陳頤萱",
          "logType": 51,
          "manipulation": 1,
          "keyId": "4474",
          "description": "複製素材 : 4474",
          "model": "{\"reservationSourceId\":13426,\"reservationTargetId\":13428,\"materials\":[4470,4470,4470,4470,4470,4470,4470]}",
          "createDate": "2022/06/29 16:47:42"
        },
        {
          "id": 25319,
          "accountId": "1244",
          "logonId": "doreen.chen",
          "name": "陳頤萱",
          "logType": 61,
          "manipulation": 2,
          "keyId": "13410",
          "description": "修改檔期預約 : 13410",
          "model": "{\"usage\":0,\"deduction\":0,\"giveaway\":false,\"note\":\"\",\"startDate\":\"2022/07/01\",\"endDate\":\"2022/07/03\"}",
          "createDate": "2022/06/29 16:47:06"
        },
        {
          "id": 25320,
          "accountId": "1244",
          "logonId": "doreen.chen",
          "name": "陳頤萱",
          "logType": 61,
          "manipulation": 2,
          "keyId": "13411",
          "description": "修改檔期預約 : 13411",
          "model": "{\"usage\":0,\"deduction\":0,\"giveaway\":false,\"note\":\"\",\"startDate\":\"2022/07/01\",\"endDate\":\"2022/07/03\"}",
          "createDate": "2022/06/29 16:47:06"
        }
      ],
      "totalPages": 1267,
      "totalElements": 25322,
      "last": false,
      "size": 20,
      "page": 1,
      "numberOfElements": 20
    }
  },
  "searchList": {
    "response": {
      "content": [
        {
          "id": 25626,
          "accountId": "9999",
          "logonId": "e2e.text",
          "name": "Cypress",
          "logType": 11,
          "manipulation": 2,
          "keyId": "1140",
          "description": "修改會員 : 黃靖宇(1140)",
          "model": "{\"logonId\":\"carrie.huang\",\"name\":\"黃靖宇\",\"accountId\":\"1140\",\"status\":1,\"role\":1,\"emergency\":true,\"allowedSite\":[1,4,5,6,14,40,102,134,3,10,115,132,2,20,21]}",
          "createDate": "2022/06/30 13:29:21"
        },
        {
          "id": 25436,
          "accountId": "9999",
          "logonId": "e2e.text",
          "name": "Cypress",
          "logType": 11,
          "manipulation": 2,
          "keyId": "1140",
          "description": "修改會員 : 黃靖宇(1140)",
          "model": "{\"logonId\":\"carrie.huang\",\"name\":\"黃靖宇\",\"accountId\":\"1140\",\"status\":1,\"role\":13,\"emergency\":false,\"allowedSite\":[]}",
          "createDate": "2022/06/30 11:59:17"
        },
        {
          "id": 25053,
          "accountId": "9999",
          "logonId": "e2e.text",
          "name": "Cypress",
          "logType": 11,
          "manipulation": 2,
          "keyId": "2121",
          "description": "修改會員 : 胡凱綺(2121)",
          "model": "{\"logonId\":\"akay.hu\",\"name\":\"胡凱綺\",\"accountId\":\"2121\",\"status\":1,\"role\":1,\"emergency\":true,\"allowedSite\":[1,4,5,6,14,40,102,134,3,10,115,132,2,20,21]}",
          "createDate": "2022/06/29 15:42:45"
        },
        {
          "id": 25051,
          "accountId": "9999",
          "logonId": "e2e.text",
          "name": "Cypress",
          "logType": 11,
          "manipulation": 2,
          "keyId": "2121",
          "description": "修改會員 : 胡凱綺(2121)",
          "model": "{\"logonId\":\"akay.hu\",\"name\":\"胡凱綺\",\"accountId\":\"2121\",\"status\":1,\"role\":1,\"emergency\":true,\"allowedSite\":[1,2,3,4,5,6,10,14,20,40,102,115,132,134]}",
          "createDate": "2022/06/29 15:38:56"
        },
        {
          "id": 25050,
          "accountId": "9999",
          "logonId": "e2e.text",
          "name": "Cypress",
          "logType": 11,
          "manipulation": 2,
          "keyId": "2121",
          "description": "修改會員 : 胡凱綺(2121)",
          "model": "{\"logonId\":\"akay.hu\",\"name\":\"胡凱綺\",\"accountId\":\"2121\",\"status\":1,\"role\":1,\"emergency\":true,\"allowedSite\":[1,2,3,4,5,6,10,14,20,21,40,102,115,132,134]}",
          "createDate": "2022/06/29 15:37:49"
        },
        {
          "id": 24691,
          "accountId": "9999",
          "logonId": "e2e.text",
          "name": "Cypress",
          "logType": 11,
          "manipulation": 2,
          "keyId": "0008",
          "description": "修改會員 : 黃秋琴(0008)",
          "model": "{\"logonId\":\"jean\",\"name\":\"黃秋琴\",\"accountId\":\"0008\",\"status\":0,\"role\":1,\"emergency\":true,\"allowedSite\":[1,2,3,4,5,6,10,14,20,21,40,102,115,132,134]}",
          "createDate": "2022/06/29 14:56:53"
        },
        {
          "id": 24689,
          "accountId": "9999",
          "logonId": "e2e.text",
          "name": "Cypress",
          "logType": 11,
          "manipulation": 1,
          "keyId": "0008",
          "description": "新增會員 : 黃秋琴(0008)",
          "model": "{\"logonId\":\"jean\",\"name\":\"黃秋琴\",\"accountId\":\"0008\",\"status\":1,\"role\":1,\"emergency\":true,\"allowedSite\":[1,4,5,6,14,40,102,134,3,10,115,132,2,20,21]}",
          "createDate": "2022/06/29 14:40:59"
        },
        {
          "id": 24055,
          "accountId": "9999",
          "logonId": "e2e.text",
          "name": "Cypress",
          "logType": 11,
          "manipulation": 2,
          "keyId": "0001",
          "description": "修改會員 : 楊基寬(0001)",
          "model": "{\"logonId\":\"rocky\",\"name\":\"楊基寬\",\"accountId\":\"0001\",\"status\":0,\"role\":1,\"emergency\":true,\"allowedSite\":[1,2,3,4,5,6,10,14,20,21,40,102,115,132,134]}",
          "createDate": "2022/06/16 15:20:39"
        },
        {
          "id": 24052,
          "accountId": "9999",
          "logonId": "e2e.text",
          "name": "Cypress",
          "logType": 11,
          "manipulation": 2,
          "keyId": "0001",
          "description": "修改會員 : 楊基寬(0001)",
          "model": "{\"logonId\":\"rocky\",\"name\":\"楊基寬\",\"accountId\":\"0001\",\"status\":1,\"role\":1,\"emergency\":true,\"allowedSite\":[1,4,5,6,14,40,102,134,3,10,115,132,2,20,21]}",
          "createDate": "2022/06/16 15:20:32"
        },
        {
          "id": 23603,
          "accountId": "9999",
          "logonId": "e2e.text",
          "name": "Cypress",
          "logType": 11,
          "manipulation": 2,
          "keyId": "0001",
          "description": "修改會員 : 楊基寬(0001)",
          "model": "{\"logonId\":\"rocky\",\"name\":\"楊基寬\",\"accountId\":\"0001\",\"status\":0,\"role\":1,\"emergency\":true,\"allowedSite\":[1,4,5,6,14,40,102,134]}",
          "createDate": "2022/06/14 17:12:10"
        },
        {
          "id": 23600,
          "accountId": "9999",
          "logonId": "e2e.text",
          "name": "Cypress",
          "logType": 11,
          "manipulation": 2,
          "keyId": "0001",
          "description": "修改會員 : 楊基寬(0001)",
          "model": "{\"logonId\":\"rocky\",\"name\":\"楊基寬\",\"accountId\":\"0001\",\"status\":1,\"role\":1,\"emergency\":true,\"allowedSite\":[1,4,5,6,14,40,102,134]}",
          "createDate": "2022/06/14 17:12:03"
        },
        {
          "id": 23341,
          "accountId": "9999",
          "logonId": "e2e.text",
          "name": "Cypress",
          "logType": 11,
          "manipulation": 2,
          "keyId": "0001",
          "description": "修改會員 : 楊基寬(0001)",
          "model": "{\"logonId\":\"rocky\",\"name\":\"楊基寬\",\"accountId\":\"0001\",\"status\":0,\"role\":1,\"emergency\":true,\"allowedSite\":[1,2,3,4,5,6,10,14,20,21,40,102,115,132,134]}",
          "createDate": "2022/06/14 15:06:48"
        },
        {
          "id": 23338,
          "accountId": "9999",
          "logonId": "e2e.text",
          "name": "Cypress",
          "logType": 11,
          "manipulation": 2,
          "keyId": "0001",
          "description": "修改會員 : 楊基寬(0001)",
          "model": "{\"logonId\":\"rocky\",\"name\":\"楊基寬\",\"accountId\":\"0001\",\"status\":1,\"role\":1,\"emergency\":true,\"allowedSite\":[1,4,5,6,14,40,102,134,3,10,115,132,2,20,21]}",
          "createDate": "2022/06/14 15:06:40"
        },
        {
          "id": 23328,
          "accountId": "9999",
          "logonId": "e2e.text",
          "name": "Cypress",
          "logType": 11,
          "manipulation": 2,
          "keyId": "0001",
          "description": "修改會員 : 楊基寬(0001)",
          "model": "{\"logonId\":\"rocky\",\"name\":\"楊基寬\",\"accountId\":\"0001\",\"status\":0,\"role\":1,\"emergency\":true,\"allowedSite\":[1,2,3,4,5,6,10,14,20,21,40,102,115,132,134]}",
          "createDate": "2022/06/14 15:03:53"
        },
        {
          "id": 23325,
          "accountId": "9999",
          "logonId": "e2e.text",
          "name": "Cypress",
          "logType": 11,
          "manipulation": 2,
          "keyId": "0001",
          "description": "修改會員 : 楊基寬(0001)",
          "model": "{\"logonId\":\"rocky\",\"name\":\"楊基寬\",\"accountId\":\"0001\",\"status\":1,\"role\":1,\"emergency\":true,\"allowedSite\":[1,4,5,6,14,40,102,134,3,10,115,132,2,20,21]}",
          "createDate": "2022/06/14 15:03:44"
        },
        {
          "id": 23319,
          "accountId": "9999",
          "logonId": "e2e.text",
          "name": "Cypress",
          "logType": 11,
          "manipulation": 2,
          "keyId": "0001",
          "description": "修改會員 : 楊基寬(0001)",
          "model": "{\"logonId\":\"rocky\",\"name\":\"楊基寬\",\"accountId\":\"0001\",\"status\":0,\"role\":1,\"emergency\":true,\"allowedSite\":[1,2,3,4,5,6,10,14,20,21,40,102,115,132,134]}",
          "createDate": "2022/06/14 15:03:11"
        },
        {
          "id": 23314,
          "accountId": "9999",
          "logonId": "e2e.text",
          "name": "Cypress",
          "logType": 11,
          "manipulation": 2,
          "keyId": "0001",
          "description": "修改會員 : 楊基寬(0001)",
          "model": "{\"logonId\":\"rocky\",\"name\":\"楊基寬\",\"accountId\":\"0001\",\"status\":0,\"role\":1,\"emergency\":true,\"allowedSite\":[1,4,5,6,14,40,102,134,3,10,115,132,2,20,21]}",
          "createDate": "2022/06/14 15:02:54"
        },
        {
          "id": 23309,
          "accountId": "9999",
          "logonId": "e2e.text",
          "name": "Cypress",
          "logType": 11,
          "manipulation": 2,
          "keyId": "0001",
          "description": "修改會員 : 楊基寬(0001)",
          "model": "{\"logonId\":\"rocky\",\"name\":\"楊基寬\",\"accountId\":\"0001\",\"status\":1,\"role\":1,\"emergency\":true,\"allowedSite\":[1,2,3,4,5,6,10,14,20,21,40,102,115,132,134]}",
          "createDate": "2022/06/14 15:02:45"
        },
        {
          "id": 23306,
          "accountId": "9999",
          "logonId": "e2e.text",
          "name": "Cypress",
          "logType": 11,
          "manipulation": 2,
          "keyId": "0001",
          "description": "修改會員 : 楊基寬(0001)",
          "model": "{\"logonId\":\"rocky\",\"name\":\"楊基寬\",\"accountId\":\"0001\",\"status\":0,\"role\":1,\"emergency\":true,\"allowedSite\":[1,4,5,6,14,40,102,134,3,10,115,132,2,20,21]}",
          "createDate": "2022/06/14 15:02:35"
        },
        {
          "id": 23300,
          "accountId": "9999",
          "logonId": "e2e.text",
          "name": "Cypress",
          "logType": 11,
          "manipulation": 2,
          "keyId": "0001",
          "description": "修改會員 : 楊基寬(0001)",
          "model": "{\"logonId\":\"rocky\",\"name\":\"楊基寬\",\"accountId\":\"0001\",\"status\":1,\"role\":1,\"emergency\":true,\"allowedSite\":[1,2,3,4,5,6,10,14,20,21,40,102,115,132,134]}",
          "createDate": "2022/06/14 15:02:26"
        }
      ],
      "totalPages": 15,
      "totalElements": 282,
      "last": false,
      "size": 20,
      "page": 1,
      "numberOfElements": 20
    }
  },
  "searchDataHistoryList": {
    "response": {
      "content": [
        {
          "id": 25053,
          "accountId": "9999",
          "logonId": "e2e.text",
          "name": "Cypress",
          "logType": 11,
          "manipulation": 2,
          "keyId": "2121",
          "description": "修改會員 : 胡凱綺(2121)",
          "model": "{\"logonId\":\"akay.hu\",\"name\":\"胡凱綺\",\"accountId\":\"2121\",\"status\":1,\"role\":1,\"emergency\":true,\"allowedSite\":[1,4,5,6,14,40,102,134,3,10,115,132,2,20,21]}",
          "createDate": "2022/06/29 15:42:45"
        },
        {
          "id": 25051,
          "accountId": "9999",
          "logonId": "e2e.text",
          "name": "Cypress",
          "logType": 11,
          "manipulation": 2,
          "keyId": "2121",
          "description": "修改會員 : 胡凱綺(2121)",
          "model": "{\"logonId\":\"akay.hu\",\"name\":\"胡凱綺\",\"accountId\":\"2121\",\"status\":1,\"role\":1,\"emergency\":true,\"allowedSite\":[1,2,3,4,5,6,10,14,20,40,102,115,132,134]}",
          "createDate": "2022/06/29 15:38:56"
        },
        {
          "id": 25050,
          "accountId": "9999",
          "logonId": "e2e.text",
          "name": "Cypress",
          "logType": 11,
          "manipulation": 2,
          "keyId": "2121",
          "description": "修改會員 : 胡凱綺(2121)",
          "model": "{\"logonId\":\"akay.hu\",\"name\":\"胡凱綺\",\"accountId\":\"2121\",\"status\":1,\"role\":1,\"emergency\":true,\"allowedSite\":[1,2,3,4,5,6,10,14,20,21,40,102,115,132,134]}",
          "createDate": "2022/06/29 15:37:49"
        },
        {
          "id": 7610,
          "accountId": "9999",
          "logonId": "e2e.text",
          "name": "Cypress",
          "logType": 11,
          "manipulation": 2,
          "keyId": "2121",
          "description": "修改會員 : 胡凱綺(2121)",
          "model": "{\"logonId\":\"akay.hu\",\"name\":\"胡凱綺\",\"accountId\":\"2121\",\"status\":1,\"role\":1,\"emergency\":true,\"allowedSite\":[1,4,5,6,14,40,102,3,10,115,132,2,20,21]}",
          "createDate": "2021/11/25 16:34:48"
        },
        {
          "id": 7606,
          "accountId": "9999",
          "logonId": "e2e.text",
          "name": "Cypress",
          "logType": 11,
          "manipulation": 2,
          "keyId": "2121",
          "description": "修改會員 : 胡凱綺(2121)",
          "model": "{\"logonId\":\"akay.hu\",\"name\":\"胡凱綺\",\"accountId\":\"2121\",\"status\":1,\"role\":1,\"emergency\":false,\"allowedSite\":[]}",
          "createDate": "2021/11/25 16:29:20"
        },
        {
          "id": 7603,
          "accountId": "9999",
          "logonId": "e2e.text",
          "name": "Cypress",
          "logType": 11,
          "manipulation": 2,
          "keyId": "2121",
          "description": "修改會員 : 胡凱綺(2121)",
          "model": "{\"logonId\":\"akay.hu\",\"name\":\"胡凱綺\",\"accountId\":\"2121\",\"status\":1,\"role\":13,\"emergency\":false,\"allowedSite\":[]}",
          "createDate": "2021/11/25 16:24:04"
        }
      ],
      "totalPages": 1,
      "totalElements": 6,
      "last": false,
      "size": 20,
      "page": 1,
      "numberOfElements": 6
    }
  }
}
