{
  "expired": {
    "response": {
      "content": [
        {
          "reservationId": 12544,
          "startDate": "2022/06/20",
          "endDate": "2022/06/26",
          "boardName": "專屬A鑽",
          "channelName": "新版首頁",
          "siteName": "工作快找",
          "device": "APP",
          "projectId": 213,
          "orderId": null,
          "daysDiff": 1
        },
        {
          "reservationId": 12545,
          "startDate": "2022/06/20",
          "endDate": "2022/06/26",
          "boardName": "專屬A鑽",
          "channelName": "新版配對工作列表頁",
          "siteName": "工作快找",
          "device": "APP",
          "projectId": 213,
          "orderId": null,
          "daysDiff": 1
        },
        {
          "reservationId": 13060,
          "startDate": "2022/06/20",
          "endDate": "2022/06/26",
          "boardName": "關鍵字職缺",
          "channelName": "新版搜尋頁",
          "siteName": "工作快找",
          "device": "APP",
          "projectId": 213,
          "orderId": null,
          "daysDiff": 1
        },
        {
          "reservationId": 13061,
          "startDate": "2022/06/20",
          "endDate": "2022/06/26",
          "boardName": "關鍵字職缺",
          "channelName": "首頁",
          "siteName": "人力銀行C主網",
          "device": "PC",
          "projectId": 213,
          "orderId": null,
          "daysDiff": 1
        },
        {
          "reservationId": 13062,
          "startDate": "2022/06/20",
          "endDate": "2022/06/26",
          "boardName": "關鍵字職缺",
          "channelName": "公司列表頁",
          "siteName": "人力銀行C主網",
          "device": "PC",
          "projectId": 213,
          "orderId": null,
          "daysDiff": 1
        },
        {
          "reservationId": 13063,
          "startDate": "2022/06/20",
          "endDate": "2022/06/26",
          "boardName": "關鍵字職缺",
          "channelName": "工作列表頁",
          "siteName": "人力銀行C主網",
          "device": "PC",
          "projectId": 213,
          "orderId": null,
          "daysDiff": 1
        }
      ],
      "totalPages": 146,
      "totalElements": 1459,
      "last": false,
      "size": 10,
      "page": 1,
      "numberOfElements": 10
    }
  },
  "unUpload": {
    "response": {
      "content": [
        {
          "reservationId": 12335,
          "startDate": "2022/06/27",
          "endDate": "2022/06/30",
          "boardName": "半導體業_列表",
          "channelName": "求職主動線_公司列表頁",
          "siteName": "工作快找",
          "device": "APP",
          "projectId": 231,
          "orderId": "30103-211200004",
          "daysDiff": -1
        },
        {
          "reservationId": 12365,
          "startDate": "2022/06/27",
          "endDate": "2022/06/30",
          "boardName": "半導體業_列表",
          "channelName": "求職主動線_公司列表頁",
          "siteName": "工作快找",
          "device": "APP",
          "projectId": 223,
          "orderId": "30103-201200006",
          "daysDiff": -1
        },
        {
          "reservationId": 11639,
          "startDate": "2022/06/27",
          "endDate": "2022/07/03",
          "boardName": "服務業_列表",
          "channelName": "求職主動線_公司列表頁",
          "siteName": "工作快找",
          "device": "APP",
          "projectId": 263,
          "orderId": "30103-220200002",
          "daysDiff": -1
        },
        {
          "reservationId": 12004,
          "startDate": "2022/06/27",
          "endDate": "2022/07/03",
          "boardName": "金融保險業_卡片",
          "channelName": "求職主動線_公司列表頁",
          "siteName": "人力銀行C主網",
          "device": "PC",
          "projectId": 270,
          "orderId": "30103-220200001",
          "daysDiff": -1
        },
        {
          "reservationId": 11766,
          "startDate": "2022/06/27",
          "endDate": "2022/07/03",
          "boardName": "科技研發業_列表",
          "channelName": "求職主動線_公司列表頁",
          "siteName": "人力銀行C主網",
          "device": "PC",
          "projectId": 263,
          "orderId": "30103-220200002",
          "daysDiff": -1
        }
      ],
      "totalPages": 2,
      "totalElements": 12,
      "last": false,
      "size": 10,
      "page": 1,
      "numberOfElements": 10
    }
  },
  "unCue": {
    "response": {
      "content": [
        {
          "reservationId": 13312,
          "startDate": "2022/06/27",
          "endDate": "2022/06/30",
          "boardName": "職缺P鑽",
          "channelName": "職缺頁",
          "siteName": "人力銀行C主網",
          "device": "MOBILE",
          "projectId": 213,
          "orderId": null,
          "daysDiff": -1
        },
        {
          "reservationId": 13313,
          "startDate": "2022/06/27",
          "endDate": "2022/06/30",
          "boardName": "職缺P鑽",
          "channelName": "職缺頁",
          "siteName": "人力銀行C主網",
          "device": "PC",
          "projectId": 213,
          "orderId": null,
          "daysDiff": -1
        },
        {
          "reservationId": 12546,
          "startDate": "2022/06/27",
          "endDate": "2022/06/30",
          "boardName": "專屬A鑽",
          "channelName": "新版首頁",
          "siteName": "工作快找",
          "device": "APP",
          "projectId": 213,
          "orderId": null,
          "daysDiff": -1
        },
        {
          "reservationId": 12802,
          "startDate": "2022/06/27",
          "endDate": "2022/06/30",
          "boardName": "人氣文字2(全職)",
          "channelName": "新版搜尋頁",
          "siteName": "工作快找",
          "device": "APP",
          "projectId": 213,
          "orderId": null,
          "daysDiff": -1
        },
        {
          "reservationId": 12547,
          "startDate": "2022/06/27",
          "endDate": "2022/06/30",
          "boardName": "專屬A鑽",
          "channelName": "新版配對工作列表頁",
          "siteName": "工作快找",
          "device": "APP",
          "projectId": 213,
          "orderId": null,
          "daysDiff": -1
        },
        {
          "reservationId": 12803,
          "startDate": "2022/06/27",
          "endDate": "2022/06/30",
          "boardName": "人氣文字2(兼職)",
          "channelName": "新版搜尋框下方",
          "siteName": "工作快找",
          "device": "APP",
          "projectId": 213,
          "orderId": null,
          "daysDiff": -1
        }
      ],
      "totalPages": 34,
      "totalElements": 332,
      "last": false,
      "size": 10,
      "page": 1,
      "numberOfElements": 10
    }
  }
}
