{
  "customerSuggestion": {
    "response": [
      {
        "id": 123,
        "name": "test123",
        "selfProject": false,
        "startDate": "2021/08/16",
        "endDate": "2022/07/05"
      },
      {
        "id": 456,
        "name": "test456",
        "selfProject": false,
        "startDate": "2021/09/08",
        "endDate": "2022/07/05"
      }
    ]
  },
  "boardSuggestion": {
    "response": [
      {
        "id": 61,
        "channelId": 18,
        "channelName": "優化版側欄選單",
        "siteId": 3,
        "siteName": "工作快找",
        "device": "APP",
        "name": "企業特區1",
        "url": null,
        "conditionId": 0,
        "snapshot": false,
        "typeId": 3,
        "style": "",
        "responseTypeTemplateDetail": null,
        "reserve": 1,
        "lowerLimit": 1,
        "upperLimit": 1,
        "promotion": false,
        "status": false,
        "associateWithProduct": null,
        "canDelete": null,
        "sort": 0
      },
      {
        "id": 66,
        "channelId": 20,
        "channelName": "優化版應徵完成頁",
        "siteId": 3,
        "siteName": "工作快找",
        "device": "APP",
        "name": "企業特區2",
        "url": null,
        "conditionId": 0,
        "snapshot": false,
        "typeId": 4,
        "style": "",
        "responseTypeTemplateDetail": null,
        "reserve": 1,
        "lowerLimit": 1,
        "upperLimit": 1,
        "promotion": false,
        "status": false,
        "associateWithProduct": null,
        "canDelete": null,
        "sort": 0
      },
      {
        "id": 67,
        "channelId": 20,
        "channelName": "優化版應徵完成頁",
        "siteId": 3,
        "siteName": "工作快找",
        "device": "APP",
        "name": "企業特區3",
        "url": null,
        "conditionId": 0,
        "snapshot": false,
        "typeId": 4,
        "style": "",
        "responseTypeTemplateDetail": null,
        "reserve": 1,
        "lowerLimit": 1,
        "upperLimit": 1,
        "promotion": false,
        "status": false,
        "associateWithProduct": null,
        "canDelete": null,
        "sort": 0
      },
      {
        "id": 71,
        "channelId": 21,
        "channelName": "優化版職務列表頁",
        "siteId": 3,
        "siteName": "工作快找",
        "device": "APP",
        "name": "列表A鑽",
        "url": null,
        "conditionId": 0,
        "snapshot": false,
        "typeId": 20,
        "style": "",
        "responseTypeTemplateDetail": null,
        "reserve": 15,
        "lowerLimit": 1,
        "upperLimit": 15,
        "promotion": false,
        "status": false,
        "associateWithProduct": null,
        "canDelete": null,
        "sort": 0
      },
      {
        "id": 72,
        "channelId": 22,
        "channelName": "優化版專屬工作(推薦)",
        "siteId": 3,
        "siteName": "工作快找",
        "device": "APP",
        "name": "專屬A鑽",
        "url": null,
        "conditionId": 0,
        "snapshot": false,
        "typeId": 20,
        "style": "",
        "responseTypeTemplateDetail": null,
        "reserve": 10,
        "lowerLimit": 1,
        "upperLimit": 10,
        "promotion": false,
        "status": false,
        "associateWithProduct": null,
        "canDelete": null,
        "sort": 0
      },
      {
        "id": 374,
        "channelId": 170,
        "channelName": "求職主動線_公司頁tag",
        "siteId": 1,
        "siteName": "人力銀行C主網",
        "device": "PC",
        "name": "公司頁tag",
        "url": "https://www.104-dev.com.tw/company/",
        "conditionId": 12,
        "snapshot": false,
        "typeId": 29,
        "style": "tag-semi",
        "responseTypeTemplateDetail": null,
        "reserve": 80,
        "lowerLimit": 0,
        "upperLimit": 80,
        "promotion": false,
        "status": true,
        "associateWithProduct": null,
        "canDelete": null,
        "sort": 2222223
      },
      {
        "id": 10,
        "channelId": 4,
        "channelName": "首頁",
        "siteId": 1,
        "siteName": "人力銀行C主網",
        "device": "PC",
        "name": "黃金大版位",
        "url": null,
        "conditionId": 0,
        "snapshot": true,
        "typeId": 1,
        "style": "",
        "responseTypeTemplateDetail": null,
        "reserve": 2,
        "lowerLimit": 1,
        "upperLimit": 2,
        "promotion": false,
        "status": true,
        "associateWithProduct": null,
        "canDelete": null,
        "sort": 9010101
      },
      {
        "id": 3,
        "channelId": 3,
        "channelName": "職缺頁",
        "siteId": 2,
        "siteName": "人力銀行C主網",
        "device": "MOBILE",
        "name": "職缺P鑽",
        "url": "https://m.104-dev.com.tw/job/4xz3r",
        "conditionId": 0,
        "snapshot": true,
        "typeId": 20,
        "style": "m-job",
        "responseTypeTemplateDetail": null,
        "reserve": 10,
        "lowerLimit": 0,
        "upperLimit": 10,
        "promotion": false,
        "status": true,
        "associateWithProduct": null,
        "canDelete": null,
        "sort": 9030502
      },
      {
        "id": 336,
        "channelId": 42,
        "channelName": "新版職缺頁",
        "siteId": 3,
        "siteName": "工作快找",
        "device": "APP",
        "name": "職缺A鑽",
        "url": null,
        "conditionId": 0,
        "snapshot": false,
        "typeId": 20,
        "style": "AppNewTagRight",
        "responseTypeTemplateDetail": null,
        "reserve": 10,
        "lowerLimit": 1,
        "upperLimit": 10,
        "promotion": false,
        "status": true,
        "associateWithProduct": null,
        "canDelete": null,
        "sort": 9030503
      },
      {
        "id": 27,
        "channelId": 6,
        "channelName": "職缺頁",
        "siteId": 1,
        "siteName": "人力銀行C主網",
        "device": "PC",
        "name": "工具文字",
        "url": "https://www.104-dev.com.tw/job/4xwn9",
        "conditionId": 0,
        "snapshot": true,
        "typeId": 21,
        "style": "PC",
        "responseTypeTemplateDetail": null,
        "reserve": 1,
        "lowerLimit": 1,
        "upperLimit": 1,
        "promotion": false,
        "status": true,
        "associateWithProduct": null,
        "canDelete": null,
        "sort": 9030601
      },
      {
        "id": 122,
        "channelId": 42,
        "channelName": "新版職缺頁",
        "siteId": 3,
        "siteName": "工作快找",
        "device": "APP",
        "name": "工具文字",
        "url": null,
        "conditionId": 0,
        "snapshot": false,
        "typeId": 21,
        "style": "AppNew",
        "responseTypeTemplateDetail": null,
        "reserve": 1,
        "lowerLimit": 1,
        "upperLimit": 1,
        "promotion": false,
        "status": true,
        "associateWithProduct": null,
        "canDelete": null,
        "sort": 9030602
      },
      {
        "id": 4,
        "channelId": 3,
        "channelName": "職缺頁",
        "siteId": 2,
        "siteName": "人力銀行C主網",
        "device": "MOBILE",
        "name": "工具文字",
        "url": "https://m.104-dev.com.tw/job/4xz3r",
        "conditionId": 0,
        "snapshot": true,
        "typeId": 21,
        "style": "",
        "responseTypeTemplateDetail": null,
        "reserve": 1,
        "lowerLimit": 0,
        "upperLimit": 1,
        "promotion": false,
        "status": true,
        "associateWithProduct": null,
        "canDelete": null,
        "sort": 9030603
      }
    ]
  },
  "projectSuggestion": {
    "response": [
      {
        "id": 123,
        "name": "project_test123",
        "selfProject": false,
        "startDate": "2021/09/08",
        "endDate": "2022/07/05"
      }
    ]
  },
  "jobSetting": {
    "response": {
      "content": [
        {
          "jobNo": 8301362,
          "jobName": "行政助理 高階+身障廣告平台專用勿關Ads",
          "setting": [
            { "date": "2022/05/01", "choice": false, "range": true },
            { "date": "2022/05/02", "choice": false, "range": true },
            { "date": "2022/05/03", "choice": false, "range": true },
            { "date": "2022/05/04", "choice": false, "range": true },
            { "date": "2022/05/05", "choice": false, "range": true },
            { "date": "2022/05/06", "choice": false, "range": true },
            { "date": "2022/05/07", "choice": false, "range": true },
            { "date": "2022/05/08", "choice": false, "range": true },
            { "date": "2022/05/09", "choice": false, "range": true },
            { "date": "2022/05/10", "choice": false, "range": true },
            { "date": "2022/05/11", "choice": false, "range": true },
            { "date": "2022/05/12", "choice": false, "range": true },
            { "date": "2022/05/13", "choice": false, "range": true },
            { "date": "2022/05/14", "choice": false, "range": true },
            { "date": "2022/05/15", "choice": false, "range": true },
            { "date": "2022/05/16", "choice": false, "range": true },
            { "date": "2022/05/17", "choice": false, "range": true },
            { "date": "2022/05/18", "choice": false, "range": true },
            { "date": "2022/05/19", "choice": false, "range": true },
            { "date": "2022/05/20", "choice": false, "range": true },
            { "date": "2022/05/21", "choice": false, "range": true },
            { "date": "2022/05/22", "choice": false, "range": true },
            { "date": "2022/05/23", "choice": false, "range": true },
            { "date": "2022/05/24", "choice": false, "range": true },
            { "date": "2022/05/25", "choice": false, "range": true },
            { "date": "2022/05/26", "choice": false, "range": true },
            { "date": "2022/05/27", "choice": false, "range": true },
            { "date": "2022/05/28", "choice": false, "range": true },
            { "date": "2022/05/29", "choice": false, "range": true },
            { "date": "2022/05/30", "choice": false, "range": true },
            { "date": "2022/05/31", "choice": false, "range": true }
          ]
        }
      ],
      "totalPages": 1,
      "totalElements": 21,
      "last": true,
      "size": 100,
      "page": 1,
      "numberOfElements": 21,
      "customerId": 123,
      "projectId": 123,
      "period": { "start": "2022/01/12", "end": "2022/12/31" },
      "request": { "start": "2022/05/01", "end": "2022/05/31" }
    }
  },
  "jobSettingCreated": {
    "response": {
      "content": [
        {
          "jobNo": 8301362,
          "jobName": "行政助理 高階+身障廣告平台專用勿關Ads",
          "setting": [
            { "date": "2022/05/01", "choice": true, "range": true },
            { "date": "2022/05/02", "choice": false, "range": true },
            { "date": "2022/05/03", "choice": false, "range": true },
            { "date": "2022/05/04", "choice": false, "range": true },
            { "date": "2022/05/05", "choice": false, "range": true },
            { "date": "2022/05/06", "choice": false, "range": true },
            { "date": "2022/05/07", "choice": false, "range": true },
            { "date": "2022/05/08", "choice": false, "range": true },
            { "date": "2022/05/09", "choice": false, "range": true },
            { "date": "2022/05/10", "choice": false, "range": true },
            { "date": "2022/05/11", "choice": false, "range": true },
            { "date": "2022/05/12", "choice": false, "range": true },
            { "date": "2022/05/13", "choice": false, "range": true },
            { "date": "2022/05/14", "choice": false, "range": true },
            { "date": "2022/05/15", "choice": false, "range": true },
            { "date": "2022/05/16", "choice": false, "range": true },
            { "date": "2022/05/17", "choice": false, "range": true },
            { "date": "2022/05/18", "choice": false, "range": true },
            { "date": "2022/05/19", "choice": false, "range": true },
            { "date": "2022/05/20", "choice": false, "range": true },
            { "date": "2022/05/21", "choice": false, "range": true },
            { "date": "2022/05/22", "choice": false, "range": true },
            { "date": "2022/05/23", "choice": false, "range": true },
            { "date": "2022/05/24", "choice": false, "range": true },
            { "date": "2022/05/25", "choice": false, "range": true },
            { "date": "2022/05/26", "choice": false, "range": true },
            { "date": "2022/05/27", "choice": false, "range": true },
            { "date": "2022/05/28", "choice": false, "range": true },
            { "date": "2022/05/29", "choice": false, "range": true },
            { "date": "2022/05/30", "choice": false, "range": true },
            { "date": "2022/05/31", "choice": false, "range": true }
          ]
        }
      ],
      "totalPages": 1,
      "totalElements": 21,
      "last": true,
      "size": 100,
      "page": 1,
      "numberOfElements": 21,
      "customerId": 123,
      "projectId": 123,
      "period": { "start": "2022/01/12", "end": "2022/12/31" },
      "request": { "start": "2022/05/01", "end": "2022/05/31" }
    }
  },
  "projectSummary": {
    "response": {
      "projectId": 12,
      "projectName": "台新餐飲設備_職缺驗收",
      "customerId": 1112079913,
      "customerName": "台新餐飲設備股份有限公司",
      "startDate": "2020/12/16",
      "endDate": "2022/05/05",
      "days": 83,
      "price": 0,
      "impression": 28468,
      "click": 405,
      "ctr": 1.42,
      "cpm": 0.0,
      "cpc": 0.0,
      "cpa": 0.0,
      "focusJobApplyCount": 41,
      "applyGrowthRateHigh": 616.67,
      "applyGrowthRateLow": -100.0,
      "boardApplyConvertionRate": 0.14,
      "intervalDate": [
        [
          "2022/05/02",
          "2022/05/03",
          "2022/05/04",
          "2022/05/05",
          "2022/05/06",
          "2022/05/07",
          "2022/05/08"
        ]
      ]
    }
  },
  "projectAdvertisingData": {
    "response": {
      "content": [
        {
          "date": "2022/03/31/00:00",
          "impression": 48,
          "click": 0,
          "ctr": 0.0,
          "materialId": 3242,
          "materialTitle": "custno96949827000",
          "link": ["https://news.tvbs.com.tw/life/1713043"],
          "boardId": 374,
          "typeId": 29,
          "previewUrl": [
            "https://proofs.adsmart.104-dev.com.tw/snapshot/3/2/4/2/preview-1.jpg"
          ]
        },
        {
          "date": "2022/03/30/00:00",
          "impression": 1,
          "click": 0,
          "ctr": 0.0,
          "materialId": 3242,
          "materialTitle": "custno96949827000",
          "link": ["https://news.tvbs.com.tw/life/1713043"],
          "boardId": 374,
          "typeId": 29,
          "previewUrl": [
            "https://proofs.adsmart.104-dev.com.tw/snapshot/3/2/4/2/preview-1.jpg"
          ]
        },
        {
          "date": "2022/03/29/00:00",
          "impression": 10,
          "click": 0,
          "ctr": 0.0,
          "materialId": 3242,
          "materialTitle": "custno96949827000",
          "link": ["https://news.tvbs.com.tw/life/1713043"],
          "boardId": 374,
          "typeId": 29,
          "previewUrl": [
            "https://proofs.adsmart.104-dev.com.tw/snapshot/3/2/4/2/preview-1.jpg"
          ]
        },
        {
          "date": "2022/03/28/00:00",
          "impression": 2,
          "click": 0,
          "ctr": 0.0,
          "materialId": 3242,
          "materialTitle": "custno96949827000",
          "link": ["https://news.tvbs.com.tw/life/1713043"],
          "boardId": 374,
          "typeId": 29,
          "previewUrl": [
            "https://proofs.adsmart.104-dev.com.tw/snapshot/3/2/4/2/preview-1.jpg"
          ]
        },
        {
          "date": "2022/03/27/00:00",
          "impression": 1,
          "click": 0,
          "ctr": 0.0,
          "materialId": 3241,
          "materialTitle": "custno96949827000",
          "link": ["https://news.tvbs.com.tw/life/1713043"],
          "boardId": 374,
          "typeId": 29,
          "previewUrl": [
            "https://proofs.adsmart.104-dev.com.tw/snapshot/3/2/4/1/preview-1.jpg"
          ]
        },
        {
          "date": "2022/03/26/00:00",
          "impression": 1,
          "click": 0,
          "ctr": 0.0,
          "materialId": 3241,
          "materialTitle": "custno96949827000",
          "link": ["https://news.tvbs.com.tw/life/1713043"],
          "boardId": 374,
          "typeId": 29,
          "previewUrl": [
            "https://proofs.adsmart.104-dev.com.tw/snapshot/3/2/4/1/preview-1.jpg"
          ]
        },
        {
          "date": "2022/03/25/00:00",
          "impression": 1,
          "click": 0,
          "ctr": 0.0,
          "materialId": 3241,
          "materialTitle": "custno96949827000",
          "link": ["https://news.tvbs.com.tw/life/1713043"],
          "boardId": 374,
          "typeId": 29,
          "previewUrl": [
            "https://proofs.adsmart.104-dev.com.tw/snapshot/3/2/4/1/preview-1.jpg"
          ]
        },
        {
          "date": "2022/03/24/00:00",
          "impression": 1,
          "click": 0,
          "ctr": 0.0,
          "materialId": 3241,
          "materialTitle": "custno96949827000",
          "link": ["https://news.tvbs.com.tw/life/1713043"],
          "boardId": 374,
          "typeId": 29,
          "previewUrl": [
            "https://proofs.adsmart.104-dev.com.tw/snapshot/3/2/4/1/preview-1.jpg"
          ]
        },
        {
          "date": "2022/03/23/00:00",
          "impression": 1,
          "click": 0,
          "ctr": 0.0,
          "materialId": 3241,
          "materialTitle": "custno96949827000",
          "link": ["https://news.tvbs.com.tw/life/1713043"],
          "boardId": 374,
          "typeId": 29,
          "previewUrl": [
            "https://proofs.adsmart.104-dev.com.tw/snapshot/3/2/4/1/preview-1.jpg"
          ]
        },
        {
          "date": "2022/03/22/00:00",
          "impression": 1,
          "click": 0,
          "ctr": 0.0,
          "materialId": 3241,
          "materialTitle": "custno96949827000",
          "link": ["https://news.tvbs.com.tw/life/1713043"],
          "boardId": 374,
          "typeId": 29,
          "previewUrl": [
            "https://proofs.adsmart.104-dev.com.tw/snapshot/3/2/4/1/preview-1.jpg"
          ]
        },
        {
          "date": "2022/03/21/00:00",
          "impression": 55,
          "click": 0,
          "ctr": 0.0,
          "materialId": 3241,
          "materialTitle": "custno96949827000",
          "link": ["https://news.tvbs.com.tw/life/1713043"],
          "boardId": 374,
          "typeId": 29,
          "previewUrl": [
            "https://proofs.adsmart.104-dev.com.tw/snapshot/3/2/4/1/preview-1.jpg"
          ]
        }
      ],
      "totalPages": 2,
      "totalElements": 51,
      "last": false,
      "size": 30,
      "page": 1,
      "numberOfElements": 30
    }
  },
  "periodSummary": {
    "response": {
      "boards": [
        {
          "id": 6,
          "channelId": 3,
          "channelName": "職缺頁",
          "siteId": 2,
          "siteName": "人力銀行C主網",
          "device": "MOBILE",
          "name": "語言文字:英文",
          "url": "https://m.104-dev.com.tw/job/4xz3r",
          "conditionId": 0,
          "snapshot": true,
          "typeId": 21,
          "style": "Mobile",
          "responseTypeTemplateDetail": null,
          "reserve": 1,
          "lowerLimit": 0,
          "upperLimit": 1,
          "promotion": false,
          "status": true,
          "associateWithProduct": null,
          "canDelete": null,
          "sort": 9030803
        },
        {
          "id": 30,
          "channelId": 6,
          "channelName": "職缺頁",
          "siteId": 1,
          "siteName": "人力銀行C主網",
          "device": "PC",
          "name": "語文文字:日文",
          "url": "https://www.104-dev.com.tw/job/4xwn9",
          "conditionId": 0,
          "snapshot": true,
          "typeId": 21,
          "style": "PC",
          "responseTypeTemplateDetail": null,
          "reserve": 1,
          "lowerLimit": 0,
          "upperLimit": 1,
          "promotion": false,
          "status": true,
          "associateWithProduct": null,
          "canDelete": null,
          "sort": 9030901
        }
      ],
      "dataStart": "2020/12/16",
      "dataEnd": "2022/05/05",
      "currentStart": "2020/12/16",
      "currentEnd": "2022/05/05",
      "applyCount": 110,
      "viewCount": 153412
    }
  },
  "jobApplyData": {
    "response": {
      "content": [
        {
          "jobNo": 8296858,
          "jobCode": "4xtwa",
          "jobName": "行政人員廣告平台專用勿關Ads",
          "turnonDate": "2021/07/22",
          "status": 0,
          "turnonDays": 209,
          "applyCount": 1,
          "viewCount": 42,
          "focus": true
        },
        {
          "jobNo": 8296879,
          "jobCode": "4xtwv",
          "jobName": "行政助理 兼職 2020/12/18",
          "turnonDate": "2020/06/05",
          "status": 0,
          "turnonDays": 53,
          "applyCount": 11,
          "viewCount": 19,
          "focus": true
        }
      ],
      "totalPages": 1,
      "totalElements": 51,
      "last": false,
      "size": 100,
      "page": 1,
      "numberOfElements": 51
    }
  }
}
